<?xml version="1.0" encoding="utf-8"?>
<!-- Generator: Adobe Illustrator 22.1.0, SVG Export Plug-In . SVG Version: 6.00 Build 0)  -->
<svg version="1.1" id="Capa_1" xmlns="http://www.w3.org/2000/svg" xmlns:xlink="http://www.w3.org/1999/xlink" x="0px" y="0px"
	 viewBox="0 0 586.7 38" style="enable-background:new 0 0 586.7 38;" xml:space="preserve">
<style type="text/css">
	.st0{fill:#FFFFFF;}
</style>
<title>celebrando</title>
<g id="Capa_2_1_">
	<g id="Capa_1-2">
		<path class="st0" d="M17,24.2c-0.4,0.1-1,0.3-1.7,0.5l-1,0.3c-0.9,0.2-1.9,0.4-3.1,0.6c-1.1,0.2-2.3,0.3-3.4,0.3
			c-1.9,0.1-3.7-0.3-5.4-1.1c-1.6-0.9-2.5-2.6-2.4-4.4c0-1,0.2-2,0.6-2.9c0.4-1,1-1.9,1.6-2.7c0.4-0.5,1-1.3,1.9-2.4
			C5.5,10.7,7.1,9.2,9,8c1.1-0.7,2.5-1.1,3.8-1.1h0.7c0.9,0,1.7,0.4,2.3,1.1c0.4,0.6,0.6,1.4,0.6,2.1c0,0.6-0.1,1.2-0.2,1.8
			c-0.1,0.6-0.2,1.3-0.3,1.9c-0.5-0.1-1-0.2-1.4-0.4c-0.2-0.1-0.4-0.4-0.4-0.7c0-0.1,0.1-0.5,0.3-1.3c0.1-0.4,0.1-0.8,0.2-1.1
			c0-0.5-0.2-0.9-0.6-1.2c-0.4-0.3-0.8-0.4-1.2-0.4c-0.2,0-0.5,0-0.7,0c-0.3,0-0.6,0.1-0.8,0.2C9,9.6,7,11,5.5,12.9
			c-1.6,1.7-2.9,3.8-3.6,6.1c-0.2,0.5-0.2,1-0.3,1.6c0,1.4,0.8,2.7,2,3.3c1.3,0.7,2.8,1.1,4.4,1c0.4,0,0.9,0,1.3-0.1l5.2-0.5
			c0.3,0,0.6-0.1,0.9-0.2c0.5-0.2,1-0.4,1.5-0.6l0.5-0.1c0.1,0,0.2,0,0.3,0c0,0,0.1,0.1,0.1,0.3c0,0.2,0.1,0.3,0.1,0.5L17,24.2z"/>
		<path class="st0" d="M30,16c0.4,0.2,0.8,0.6,1,1c0.2,0.4,0.4,0.8,0.4,1.3c0,0.6-0.3,1.3-0.8,1.7c-0.7,0.5-1.5,0.9-2.3,1.1
			c-0.8,0.3-1.6,0.4-2.4,0.4c-0.5,0-1,0-1.5-0.1c-0.5-0.1-1.1-0.2-1.6-0.3c-0.2,0-0.4-0.1-0.5-0.2c-0.1-0.1-0.2-0.1-0.3-0.1
			c-0.2,0.1-0.5,0.2-0.6,0.4c-0.5,0.3-0.8,0.8-0.8,1.4c0,0.8,0.6,1.5,1.4,1.7c0.7,0.2,1.5,0.3,2.2,0.3c0.6,0,1.2,0,1.8-0.1
			c0.7-0.1,1.3-0.1,1.7-0.2s1.2-0.1,2.3-0.2s1.9-0.1,2.5-0.1c-0.6,0.7-1.9,1.2-3.9,1.4l-2.7,0.3c-0.3,0-0.7,0.1-1.1,0.1
			s-0.8,0-1.1,0c-1.1,0-2.3-0.1-3.3-0.5c-1-0.3-1.6-1.2-1.6-2.3c0-0.3,0-0.5,0.1-0.8c0.1-0.5,0.3-1,0.7-1.4c0.1-0.2,0.6-0.7,1.2-1.5
			c0.9-1,2-1.8,3.2-2.3c1.2-0.5,2.4-0.9,3.7-1.3c0.2,0.1,0.5,0.2,0.7,0.2C28.8,15.7,29.4,15.8,30,16z M29.2,17.9
			c-0.2-0.1-0.3-0.2-0.5-0.3c-0.2-0.1-0.5-0.2-0.7-0.3c-0.2,0-0.4-0.1-0.6,0c-0.7,0-1.4,0.2-2,0.6l-1.1,0.6c0.5,0.9,1.4,1.4,2.4,1.4
			c1.2,0,2.3-0.6,2.9-1.7L29.2,17.9z"/>
		<path class="st0" d="M44.5,6.6c0,0.1,0.1,0.3,0.1,0.4c0,0.3-0.1,0.5-0.2,0.8c-0.1,0.3-0.3,0.5-0.4,0.8c-0.4,0.9-0.9,1.7-1.5,2.5
			c-0.6,0.8-1.1,1.6-1.5,2.4c-0.5,1-1,2-1.5,3s-1.1,2-1.6,3c-0.6,1.2-1.1,2.3-1.5,3.1c-0.2,0.6-0.4,1.3-0.7,1.9s-0.7,1.1-1.3,1.1
			c-0.3,0-0.7,0-1-0.2c-0.2-0.1-0.3-0.3-0.3-0.5c0-0.4,0.2-0.9,0.5-1.3c0.3-0.4,0.5-0.9,0.8-1.3c0.5-0.9,1.1-2,1.8-3.1l2-3.1
			c0.6-1,1.2-2.1,1.7-3.1c0.2-0.5,0.5-1,0.8-1.6c0.6-1.2,1-2.2,1.2-2.8s0.3-1.2,0.5-1.8c0.2-0.6,0.6-1,1.1-1.3
			c0.1-0.1,0.3,0,0.6,0.4C44.2,6.1,44.4,6.4,44.5,6.6z"/>
		<path class="st0" d="M54.1,16c0.4,0.2,0.8,0.6,1,1c0.2,0.4,0.4,0.8,0.3,1.3c0,0.6-0.3,1.3-0.8,1.7c-0.7,0.5-1.4,0.9-2.2,1.1
			c-0.8,0.3-1.6,0.4-2.4,0.4c-0.5,0-1,0-1.5-0.1c-0.5-0.1-1-0.2-1.5-0.3c-0.2,0-0.4-0.1-0.5-0.2c-0.1-0.1-0.2-0.1-0.3-0.1
			c-0.2,0.1-0.5,0.2-0.6,0.4c-0.5,0.3-0.8,0.8-0.8,1.4c0,0.8,0.5,1.5,1.3,1.7c0.7,0.2,1.5,0.3,2.2,0.3c0.6,0,1.2,0,1.8-0.1
			c0.7-0.1,1.3-0.1,1.7-0.2s1.2-0.1,2.3-0.2s1.9-0.1,2.5-0.1c-0.6,0.7-1.9,1.2-3.9,1.4L50,25.3c-0.3,0-0.7,0.1-1.1,0.1s-0.8,0-1.1,0
			c-1.1,0-2.3-0.1-3.3-0.5c-1-0.3-1.6-1.2-1.6-2.3c0-0.3,0-0.5,0.1-0.8c0.1-0.5,0.3-1,0.7-1.4c0.2-0.2,0.6-0.7,1.2-1.5
			c0.9-1,2-1.8,3.2-2.3c1.2-0.5,2.4-0.9,3.7-1.3c0.2,0.1,0.5,0.2,0.7,0.2C52.9,15.7,53.5,15.8,54.1,16z M53.3,17.9
			c-0.2-0.1-0.3-0.2-0.5-0.3c-0.2-0.1-0.5-0.2-0.7-0.3c-0.2,0-0.4-0.1-0.6,0c-0.7,0-1.4,0.2-2,0.6l-1.1,0.6c0.5,0.9,1.4,1.4,2.3,1.4
			c1.2,0,2.3-0.6,2.9-1.7L53.3,17.9z"/>
		<path class="st0" d="M57.1,24.5c0-0.4,0.2-0.8,0.5-1.1l0.8-0.9c0.7-0.9,1.7-2.1,2.9-3.5l1.8-2.1l3.1-3.6c1.1-1.2,2-2.6,2.8-4
			l2-3.8c0.7-1.3,2-2.1,3.4-2.1c-0.5,1.5-1.3,2.9-2.3,4.1l-1.8,2.2c-0.7,0.9-1.4,1.8-2.1,2.6c-0.7,0.9-1.2,1.8-1.5,2.9l4,0.8
			c1.6,0.5,2.4,1.4,2.4,2.6c0,0.6-0.2,1.1-0.4,1.6c-0.5,1.2-1.9,2.4-4.1,3.5c-1.7,0.8-3.5,1.6-5.3,2.2c-0.3,0.1-0.5,0.2-0.8,0.2
			c-0.3,0-0.5,0.1-0.8,0.1c-0.6,0-1.1-0.1-1.7-0.3c-1.8-0.6-2.8-1-3.1-1L57.1,24.5z M61.8,20.6c-0.3,0.5-0.6,1-0.8,1.6
			c-0.2,0.5-0.4,1.1-0.4,1.6c0,0.3,0.1,0.7,0.3,0.9c0.3,0.2,0.6,0.4,1,0.3c0.2,0,0.5,0,0.7-0.1c1.7-0.3,3.2-0.9,4.7-1.8
			c1.5-0.7,2.8-1.8,3.8-3.2c0.3-0.4,0.4-0.8,0.4-1.2c0-0.6-0.4-1.2-1-1.4c-0.8-0.3-1.6-0.4-2.4-0.4c-1.3,0-2.5,0.4-3.7,1
			C63.4,18.7,62.4,19.6,61.8,20.6z"/>
		<path class="st0" d="M79.1,13.8c0.1,0.7,0.2,1.3,0.3,2c0.1,0.5,0.6,0.9,1.1,0.8c0.2,0,0.5,0,0.7,0c0.3,0,0.7-0.1,1,0
			c0.8,0,1.6,0.2,2.4,0.5c0.8,0.4,1.3,1.1,1.4,2l-4.6-1.5c-0.3,0-0.7,0.1-1,0.2c-0.4,0.2-0.7,0.4-1,0.7c-0.6,0.6-1.2,1.3-1.6,2.1
			c-0.4,0.8-0.7,1.7-0.9,2.6c-0.1,0.9-0.5,1.7-1.1,2.4c-0.7,0.6-1.6,0.9-2.4,0.8c0.3-1.2,0.8-2.3,1.5-3.3c0.8-1,1.4-2.1,1.8-3.3
			c0.1-0.3,0.2-1.3,0.4-2.9s0.7-2.7,1.6-3.1H79.1z"/>
		<path class="st0" d="M100.5,16c0,0.8-0.1,1.5-0.4,2.3c-0.2,0.8-0.6,1.5-1,2.2l-0.7,1c-0.3,0.5-0.4,1.1-0.4,1.7c0,0.3,0,0.6,0,0.9
			c0,0.7,0.4,1.3,1,1.5l2,0.3c-0.2,0.4-0.4,0.7-0.7,1c-0.2,0.2-0.5,0.3-0.8,0.3c-0.6,0-1.4-0.5-2.2-1.5c-0.6-0.7-1.1-1.5-1.6-2.4
			c-1.6,0.8-2.6,1.2-3,1.4c-1.2,0.6-2.5,0.9-3.8,1c-0.6,0-1.2-0.1-1.7-0.5c-0.5-0.5-0.7-1.2-0.7-1.9c0-2.4,1.3-4.6,4-6.6
			c2.3-1.6,4.8-2.7,7.5-3.3c0.6,0.1,1.1,0.4,1.5,0.9C100.1,14.8,100.4,15.4,100.5,16z M100,15.7c-0.1-0.3-0.4-0.4-0.7-0.5
			c-0.3-0.1-0.7-0.1-1.1-0.1c-0.3,0-0.5,0-0.7,0L97,15.1c-1.1,0-2.2,0.4-3.1,1.1c-0.9,0.7-1.8,1.4-2.7,2.2c-0.6,0.6-1.2,1.2-1.8,1.9
			c-0.6,0.7-1,1.6-1.2,2.5c0,0.6,0.4,1.2,1,1.4c0.4,0.2,0.8,0.2,1.2,0.2c1,0,1.9-0.3,2.8-0.8c0.8-0.4,1.6-1,2.3-1.6
			c0.6-0.9,1.2-1.8,1.7-2.8c0.4-1,1.4-1.6,2.4-1.6c0.1-0.2,0.2-0.5,0.3-0.7c0.1-0.3,0.1-0.5,0.1-0.8C100.1,16,100.1,15.8,100,15.7z"
			/>
		<path class="st0" d="M101.3,25.3L101,25c0-0.2,0-0.4,0.1-0.6c0.1-0.3,0.1-0.5,0.2-0.5c0.2-0.5,0.5-0.9,0.8-1.4l1.7-2.2
			c0.7-1,1.5-2,2.2-3c0.2-0.6,0.4-1.1,0.6-1.4c0.3-0.6,0.5-0.9,0.8-1l0.4-0.1h0.1c0.2,0,0.4,0.1,0.6,0.2c0.1,0.2,0.2,0.4,0.2,0.6
			c0,0.4-0.1,0.8-0.3,1.1c-0.2,0.5-0.3,0.9-0.5,1.4c0.1,0,1-0.5,2.8-1.4c0.9-0.6,1.9-0.9,3-1c0.4,0,0.9,0.1,1.3,0.4
			c0.4,0.3,0.7,0.7,0.9,1.3c0.1,0.2,0.2,0.4,0.2,0.6c0,0.2,0.1,0.5,0.1,0.7c-0.1,1.1-0.5,2.2-1.1,3.2c-0.4,0.6-0.7,1.2-1,1.9
			l-0.6,0.5c0,0.2,0,0.4,0.1,0.5c0.1,0.1,0.1,0.2,0.2,0.3c0,0.2-0.1,0.4-0.3,0.5c-0.2,0.3-0.6,0.4-0.9,0.4c-0.3,0-0.6-0.1-0.8-0.3
			c-0.2-0.1-0.4-0.4-0.4-0.7c0-0.9,0.4-1.8,1-2.4c0.6-0.7,1.2-1.5,1.7-2.3c0.2-0.3,0.2-0.7,0.3-1.1c0-0.4-0.1-0.8-0.4-1.1
			c-0.3-0.3-0.7-0.4-1.1-0.4c-0.2,0-0.4,0-0.6,0.1c-1.5,0.4-2.8,1.2-3.9,2.3l-3.1,3.3c-1,1-2.3,1.8-3.7,2.1L101.3,25.3z"/>
		<path class="st0" d="M127.4,17.1v-0.5l0.3-0.3V16c0.9-2.5,1.8-4.9,2.8-7.4c0.1-0.6,0.3-0.9,0.3-1c0.1-0.3,0.4-0.5,0.7-0.5
			c0.1,0,0.3,0,0.4,0c0.2,0,0.5,0.2,0.6,0.3c0.1,0.1,0.2,0.3,0.2,0.5c0,0.3-0.1,0.6-0.3,0.9c-0.2,0.4-0.4,0.7-0.5,1
			c-0.4,1-0.9,2.3-1.6,3.9s-1.3,3-1.6,3.9c-0.6,1.6-1.1,2.9-1.4,4l1.1,0.1c0.3,0,0.5,0.1,0.5,0.3c0,0.2-0.1,0.3-0.2,0.4l-0.8,0.7
			c-0.2,0.3-0.4,0.5-0.6,0.9c-0.1,0.3-0.3,0.5-0.6,0.7c-0.3,0.1-0.6,0.2-0.9,0.2c-0.2,0-0.6,0-1.2-0.1c-0.4-0.1-0.8-0.1-1.2-0.1H123
			c-0.3,0-0.8,0.1-1.3,0.1s-1,0.1-1.4,0.1c-0.6,0-1.2,0-1.7-0.1c-0.5-0.1-0.9-0.2-1.3-0.4c-0.7-0.3-1.2-0.9-1.1-1.7
			c0-0.7,0.2-1.3,0.6-1.9c0.3-0.6,0.7-1.2,1.1-1.7c0.8-0.9,1.8-1.7,2.9-2.2c1.1-0.5,2.3-0.8,3.5-0.8h0.5c0.5,0,0.9,0.2,1.3,0.4
			c0.4,0.3,0.8,0.5,1.2,0.7L127.4,17.1z M118.3,20.7c-0.4,0.4-0.6,0.9-0.6,1.4c0,0.6,0.4,1,1.3,1.2c0.8,0.2,1.7,0.3,2.6,0.3h1.2
			c0.2,0,0.4-0.1,0.6-0.1c0.7-0.1,1.4-0.5,1.7-1.1c0.4-0.6,0.7-1.4,0.7-2.1c0-0.6-0.1-1.1-0.5-1.6c-0.4-0.5-1-0.7-1.6-0.7
			c-1,0.1-2,0.4-2.8,0.9C119.8,19.2,119,19.9,118.3,20.7z"/>
		<path class="st0" d="M148.3,18.5c0.3,0.6,0.4,1.2,0.4,1.8c0,1.8-1.3,3.2-4,4.2c-2,0.8-4.2,1.2-6.3,1.2c-1.2,0-2.4-0.1-3.6-0.3
			c-1.2-0.2-2.3-0.9-2.9-1.9c-0.1-0.2-0.2-0.4-0.3-0.6c-0.1-0.2-0.1-0.4-0.1-0.6c0-0.8,0.4-1.6,1-2.1c0.6-0.6,1.3-1.2,2.1-1.6
			c1.3-0.8,2.1-1.3,2.4-1.4c0.8-0.4,1.6-0.8,2.5-1.1c0.6-0.2,1.1-0.3,1.7-0.4c0.6-0.1,1.1-0.1,1.7-0.1c1.1,0,2.2,0.2,3.2,0.6
			C147,16.6,147.8,17.4,148.3,18.5z M133.7,22.9c0.4,0.4,0.9,0.7,1.4,0.9c0.5,0.2,1,0.4,1.6,0.5c0.4,0.1,0.8,0.1,1.3,0.1
			c0.5,0,1,0,1.5-0.1c0.4,0,1.4-0.2,3.1-0.5c1-0.2,2-0.7,2.9-1.3c1.1-0.8,1.7-1.6,1.7-2.4c0-0.3-0.1-0.5-0.2-0.8
			c-0.1-0.3-0.3-0.6-0.6-0.8c-0.4-0.4-0.9-0.7-1.5-0.9c-0.7-0.2-1.3-0.3-2-0.3c-0.8,0-1.6,0.1-2.3,0.3c-1.4,0.4-2.8,0.9-4.1,1.7
			c-1.3,0.7-2.5,1.8-3.3,3L133.7,22.9z"/>
		<path class="st0" d="M173,6.6c0,0.1,0.1,0.3,0.1,0.4c0,0.3-0.1,0.5-0.2,0.8c-0.1,0.3-0.3,0.5-0.4,0.8c-0.4,0.9-0.9,1.7-1.5,2.5
			c-0.6,0.8-1.1,1.6-1.5,2.4c-0.5,1-1,2-1.5,3s-1.1,2-1.6,3c-0.6,1.2-1.1,2.3-1.5,3.1c-0.2,0.6-0.4,1.3-0.6,1.9s-0.7,1.1-1.3,1.1
			c-0.3,0-0.7,0-1-0.2c-0.2-0.1-0.3-0.3-0.3-0.5c0-0.5,0.2-0.9,0.4-1.3c0.3-0.4,0.5-0.9,0.8-1.3c0.5-0.9,1.1-2,1.8-3.1l2-3.1
			c0.6-1,1.2-2,1.7-3.1c0.2-0.5,0.5-1,0.8-1.6c0.6-1.2,1-2.2,1.2-2.8s0.3-1.2,0.5-1.8c0.2-0.5,0.6-1,1.1-1.3c0.1-0.1,0.3,0,0.6,0.4
			C172.7,6.2,172.9,6.4,173,6.6z"/>
		<path class="st0" d="M185.3,16c0,0.8-0.1,1.5-0.4,2.3c-0.2,0.8-0.6,1.5-1,2.2c-0.4,0.6-0.6,1-0.7,1c-0.3,0.5-0.5,1.1-0.5,1.6
			c0,0.3,0,0.6,0.1,0.9c0,0.7,0.4,1.3,1.1,1.5l2,0.3c-0.2,0.4-0.4,0.7-0.7,1c-0.2,0.2-0.5,0.3-0.8,0.3c-0.6,0-1.4-0.5-2.2-1.5
			c-0.6-0.7-1.1-1.5-1.6-2.4c-1.6,0.8-2.6,1.2-3,1.4c-1.2,0.6-2.5,0.9-3.8,1c-0.6,0-1.2-0.1-1.6-0.5c-0.5-0.5-0.7-1.2-0.6-1.9
			c0-2.4,1.4-4.6,4.1-6.6c2.3-1.6,4.8-2.7,7.5-3.3c0.6,0.1,1.1,0.4,1.5,0.9C185,14.8,185.3,15.4,185.3,16z M184.8,15.7
			c-0.1-0.2-0.4-0.4-0.7-0.5c-0.4-0.1-0.7-0.1-1.1-0.1c-0.3,0-0.5,0-0.7,0l-0.6,0.1c-1.1,0-2.2,0.4-3.1,1.1
			c-0.9,0.7-1.8,1.4-2.7,2.2c-0.6,0.6-1.2,1.2-1.8,1.9c-0.7,0.7-1.1,1.5-1.2,2.5c0,0.6,0.4,1.2,1,1.4c0.4,0.2,0.8,0.2,1.2,0.2
			c1,0,1.9-0.3,2.8-0.8c0.9-0.4,1.7-1,2.4-1.6c0.6-0.9,1.2-1.8,1.7-2.8c0.4-1,1.4-1.6,2.4-1.6c0.1-0.2,0.2-0.5,0.3-0.7
			c0.1-0.3,0.1-0.5,0.1-0.8C184.9,16,184.8,15.8,184.8,15.7L184.8,15.7z"/>
		<path class="st0" d="M203.4,11.9c-0.1,0.7-0.6,1.3-1.2,1.6c-0.2,0.1-1.4,0.4-3.7,0.8c-0.9,0.2-1.8,0.4-2.6,0.7
			c-0.9,0.3-1.6,0.8-2.3,1.5c2,0.5,3.5,0.9,4.6,1.3c2.1,0.7,3.1,1.6,3.1,2.6c0,0.5-0.2,0.9-0.4,1.3c-1,1.5-2.5,2.6-4.1,3.3
			c-1.6,0.8-3.4,1.3-5.2,1.4c-1.4,0-2.8-0.6-3.8-1.6c-1.1-0.9-1.7-2.2-1.7-3.6c0-0.2,0-0.4,0-0.5c1,0.5,1.8,1.4,2.3,2.4
			c0.5,1,1.5,1.8,2.6,2c1.4-0.1,2.8-0.4,4.1-0.9c1.3-0.4,2.6-1.2,3.6-2.1c0.4-0.3,0.6-0.8,0.7-1.3c0-0.6-0.5-1.1-1.5-1.5
			c-0.8-0.3-1.6-0.6-2.5-0.7l-3-0.5c-0.9-0.2-1.8-0.7-2.5-1.4c0.5-0.6,1.2-1,1.8-1.4c1.3-0.6,2.6-1,3.9-1.4c2.2-0.6,4.5-1.4,6.9-2.2
			C202.9,11.7,203.2,11.8,203.4,11.9z"/>
		<path class="st0" d="M216.1,25c0-0.4,0.3-1,0.9-1.6c0.3-0.3,0.5-0.5,0.8-0.8c0.3-0.4,0.6-0.8,1-1.2l1.8-1.9c0.2-0.3,0.4-0.7,0.6-1
			c0.4-0.9,0.9-1.3,1.4-1.5c0.2,0,0.5-0.1,0.7-0.1c0.3,0,0.7-0.1,1-0.2c0.4-0.2,0.8-0.4,1.3-0.6l1.4-0.7c0.3-0.2,0.7-0.3,1.1-0.3
			c0.7,0,1.2,0.5,1.6,1.4c0.3,0.8,0.5,1.6,0.6,2.5c0.2-0.1,1.6-0.9,4.4-2.4c0.9-0.5,1.8-0.9,2.8-1.2c0.3-0.1,0.6-0.2,0.8-0.2
			c0.2,0,0.4-0.1,0.6-0.1c0.3,0,0.6,0.1,0.8,0.3c0.3,0.3,0.4,0.8,0.4,1.2c0,0.3,0,0.5-0.1,0.8c0,0.2-0.2,0.6-0.3,1.1
			c-1.2,2-2.4,4-3.6,6c-0.1,0.2-0.1,0.4-0.1,0.6c0,0.2,0,0.5,0,0.7c0,0.2,0.1,0.5,0.1,0.8c0,0.1,0,0.2-0.1,0.4
			c-0.2,0.4-0.4,0.6-0.7,0.6c-0.3,0-0.6-0.2-0.8-0.4c-0.2-0.3-0.4-0.6-0.4-0.9c0-0.3,0-0.6,0-0.7c0-1,0.4-2.1,0.9-2.9
			c0.6-0.9,1.2-1.8,1.8-2.7c0.6-0.8,0.9-1.8,0.9-2.8c-1.1,0.3-2.1,0.7-3.1,1.3c-0.2,0.1-1.9,1.1-4.9,2.9c-0.6,0.4-1.2,0.9-1.8,1.4
			c-0.8,0.8-1.8,1.4-2.9,1.5h-0.4L224,24c0.2-0.9,0.8-1.7,1.6-2.2c0.5-0.4,1-0.8,1.4-1.4c0.3-0.5,0.5-1,0.6-1.6c0-0.2,0-0.5-0.1-0.7
			c-0.1-0.2-0.2-0.6-0.4-1c-1.1,0.5-2.2,1.2-3.2,2c-1,0.8-1.9,1.7-2.8,2.6l-2.1,2.6c-0.7,0.8-1.7,1.2-2.8,1.2V25z"/>
		<path class="st0" d="M243,24.2h0.6c0.2,0,0.4,0.1,0.6,0.1c0.7,0,1.4-0.2,2-0.5l1.8-0.7c1.7-0.6,3.3-1.4,4.8-2.5
			c1.4-1.1,2.6-2.4,3.5-4c0.4-0.7,0.8-1.4,1.2-2.1c0.7-0.9,1.3-1.3,1.8-1.2c0.2,0,0.4,0.1,0.6,0.3c0.1,0.1,0.1,0.3,0.1,0.4
			c0,0.4-0.2,0.8-0.4,1.2c-0.2,0.3-0.4,0.6-0.7,1s-1,1.2-2,2.3c-1.2,1.2-2.1,2.7-2.7,4.3c-0.1,0.3-0.1,0.5-0.1,0.8
			c0,0.3,0.2,0.7,0.5,0.8c0.2,0,0.4,0.1,0.6,0h0.6c0.3,0,0.6,0,0.9,0.1c0.2,0.1,0.3,0.3,0.4,0.4c-0.2,0-0.6,0.1-1.3,0.3
			c-0.5,0.2-1,0.2-1.6,0.3c-0.2,0-0.5,0-0.7-0.1c-0.4-0.1-0.7-0.3-1-0.5c-0.3-0.5-0.4-1.1-0.4-1.7V22c-1.3,0.8-2.3,1.4-2.8,1.7
			c-1,0.6-2,1-3.1,1.4c-1,0.4-2.1,0.6-3.3,0.6c-0.5,0-1.1,0-1.6-0.2c-0.4-0.1-0.7-0.2-1-0.5c-0.2-0.2-0.3-0.5-0.3-0.8
			c0.1-0.8,0.4-1.5,0.9-2c0.5-0.6,1-1.2,1.5-1.9s1.1-1.3,1.8-2.1c0.2-0.2,1.2-1.3,3.2-3.4c0.3-0.3,0.6-0.6,1-0.9
			c0.3-0.2,0.5-0.3,0.8-0.3c0.3,0,0.5,0.2,0.6,0.4c0,0,0,0.1,0,0.1c-0.1,0.6-0.4,1.2-0.8,1.6c-0.7,0.9-1.5,1.8-2.3,2.6
			c-1.2,1.2-2,2-2.4,2.5c-0.8,0.9-1.4,1.9-1.9,3L243,24.2z"/>
		<path class="st0" d="M277.9,11.9c-0.1,0.7-0.6,1.3-1.2,1.6c-0.2,0.1-1.4,0.4-3.7,0.8c-0.9,0.2-1.8,0.4-2.6,0.7
			c-0.9,0.3-1.6,0.8-2.3,1.5c2,0.5,3.5,0.9,4.6,1.3c2.1,0.7,3.1,1.6,3.1,2.6c0,0.4-0.1,0.9-0.4,1.3c-1,1.5-2.5,2.6-4.1,3.3
			c-1.6,0.8-3.4,1.3-5.2,1.4c-1.4,0-2.8-0.6-3.8-1.6c-1.1-0.9-1.7-2.2-1.7-3.6c0-0.1,0-0.3,0-0.5c1,0.5,1.8,1.4,2.4,2.4
			c0.5,1,1.5,1.8,2.6,2c1.4-0.1,2.8-0.4,4.1-0.9c1.3-0.4,2.6-1.2,3.6-2.1c0.4-0.3,0.6-0.8,0.7-1.3c0-0.6-0.5-1.1-1.5-1.5
			c-0.8-0.3-1.6-0.6-2.5-0.7L267,18c-1-0.2-1.9-0.7-2.5-1.4c0.5-0.6,1.1-1,1.8-1.4c1.3-0.6,2.6-1,3.9-1.4c2.2-0.7,4.5-1.4,6.9-2.2
			C277.3,11.7,277.6,11.8,277.9,11.9z"/>
		<path class="st0" d="M282.5,16.5c0.2,0.2,0.3,0.5,0.3,0.8c0,0.4-0.1,0.8-0.3,1.2c-0.2,0.5-0.4,0.9-0.6,1.3
			c-0.1,0.5-0.3,0.9-0.5,1.4c-0.3,0.7-0.5,1.2-0.6,1.4c-0.2,0.6-0.4,1.1-0.8,1.5c-0.5,0.3-1.1,0.4-1.7,0.4c0-0.3,0-0.5,0-0.5
			c-0.1-0.4-0.1-0.6-0.1-0.6c0-0.2,0.1-0.5,0.1-0.7c0.1-0.4,0.3-0.7,0.5-1c0.2-0.3,0.4-0.6,0.6-1c0.3-0.9,0.6-1.7,0.9-2.5
			c0.3-0.8,0.8-1.5,1.5-2.1L282.5,16.5z M284.2,7.2l0.5,1.1l0.4,0.4c0.3,0.2,0.5,0.4,0.5,0.5c0,0.1,0,0.2,0,0.3
			c0,0.3-0.2,0.6-0.4,0.8c-0.3,0.2-0.6,0.3-1,0.3c-0.4,0-0.7-0.1-1-0.3c-0.2-0.2-0.3-0.5-0.3-0.8c0-0.5,0.2-1,0.4-1.4
			c0.2-0.5,0.3-0.9,0.4-1.4h0.1C283.9,6.8,284,7,284.2,7.2L284.2,7.2z"/>
		<path class="st0" d="M300.1,16c-0.2,0.6-0.4,1.2-0.7,1.7c-0.2,0.5-0.7,0.8-1.3,0.9c-0.2,0-0.3,0-0.5-0.1c-0.5-0.2-0.8-0.5-0.8-0.9
			c0.1-0.5,0.4-0.9,0.7-1.2c0.4-0.4,0.6-0.8,0.9-1.2c-0.3-0.1-0.7-0.1-1-0.1c-1.2,0.1-2.3,0.3-3.4,0.9l-2,0.9c-1.1,0.5-2.1,1.2-3,2
			c-0.9,0.8-1.5,1.9-1.6,3.1c0,0.4,0.1,0.8,0.3,1.1c0.4,0.8,1.1,1.5,2,1.8c1,0.3,2,0.5,3,0.5c0.6,0,1.2,0,1.8-0.1
			c0.5,0,1.5-0.2,3.1-0.5c0.3-0.1,0.9-0.1,1.7-0.1c0.9,0,1.4-0.1,1.5-0.1c0.3-0.1,0.6-0.2,0.9-0.3c0.3-0.2,0.6-0.3,0.9-0.3
			c0.1,0,0.2,0,0.3,0.1l0.3-0.3h0.5c0,0,0.1,0,0.1,0s-0.1,0.1-0.3,0.2s-0.6,0.3-1.1,0.5l-0.6,0.3c-1.7,0.7-3.4,1.1-5.2,1.3
			c-0.5,0.1-1.1,0.1-1.9,0.2s-1.5,0.1-2.1,0.1c-1.6,0.1-3.1-0.2-4.6-0.8c-1.4-0.5-2.2-1.9-2.1-3.3c0.1-1.5,0.7-3,1.9-4
			c1.1-1.1,2.4-2,3.9-2.6c1.5-0.7,2.8-1.3,3.9-1.7c1.3-0.5,2.7-1,4.1-1.3c0.3,0.2,0.6,0.4,0.8,0.7c0.2,0.2,0.2,0.5,0.2,0.8
			c0,0.3-0.1,0.6-0.2,0.9C300.3,15.4,300.2,15.7,300.1,16z"/>
		<path class="st0" d="M318.2,16c0,0.8-0.1,1.5-0.4,2.3c-0.2,0.8-0.6,1.5-1,2.2l-0.7,1c-0.3,0.5-0.5,1.1-0.5,1.6
			c0,0.3,0,0.6,0.1,0.9c0,0.7,0.4,1.3,1,1.5l2,0.3c-0.2,0.4-0.4,0.7-0.7,1c-0.2,0.2-0.5,0.3-0.8,0.3c-0.6,0-1.4-0.5-2.2-1.5
			c-0.6-0.7-1.1-1.5-1.5-2.4c-1.6,0.8-2.6,1.2-3,1.4c-1.2,0.6-2.5,0.9-3.8,1c-0.6,0-1.2-0.1-1.6-0.5c-0.5-0.5-0.7-1.2-0.6-1.9
			c0-2.4,1.4-4.6,4-6.6c2.3-1.6,4.8-2.7,7.5-3.3c0.6,0.1,1.1,0.4,1.5,0.9C317.9,14.8,318.2,15.4,318.2,16z M317.7,15.7
			c-0.1-0.2-0.4-0.4-0.7-0.5c-0.4-0.1-0.7-0.1-1.1-0.1c-0.3,0-0.5,0-0.7,0l-0.6,0.1c-1.1,0-2.2,0.4-3.1,1.1
			c-0.9,0.7-1.8,1.4-2.7,2.2c-0.6,0.6-1.2,1.2-1.8,1.9c-0.6,0.7-1,1.6-1.2,2.5c0,0.6,0.4,1.2,1,1.4c0.4,0.2,0.8,0.2,1.2,0.2
			c1,0,1.9-0.3,2.8-0.8c0.9-0.4,1.7-1,2.4-1.6c0.6-0.9,1.2-1.8,1.7-2.7c0.4-1,1.3-1.6,2.4-1.6c0.1-0.2,0.2-0.5,0.3-0.7
			c0.1-0.3,0.1-0.5,0.1-0.8C317.8,16,317.8,15.8,317.7,15.7L317.7,15.7z"/>
		<path class="st0" d="M336.3,11.9c-0.1,0.7-0.6,1.3-1.2,1.6c-0.2,0.1-1.4,0.4-3.7,0.8c-0.9,0.2-1.8,0.4-2.6,0.7
			c-0.9,0.3-1.6,0.8-2.3,1.5c2,0.5,3.5,0.9,4.6,1.3c2.1,0.7,3.2,1.6,3.2,2.6c0,0.5-0.2,0.9-0.4,1.3c-1,1.5-2.5,2.6-4.1,3.3
			c-1.6,0.8-3.4,1.3-5.2,1.4c-1.4,0-2.8-0.6-3.8-1.6c-1.1-0.9-1.7-2.2-1.7-3.6c0-0.1,0-0.3,0-0.5c1,0.5,1.8,1.4,2.3,2.4
			c0.5,1,1.5,1.8,2.6,2c1.4-0.1,2.8-0.4,4.1-0.9c1.3-0.4,2.6-1.2,3.6-2.1c0.4-0.3,0.6-0.8,0.7-1.3c0-0.6-0.5-1.1-1.5-1.5
			c-0.8-0.3-1.6-0.6-2.5-0.7l-3-0.5c-1-0.2-1.9-0.7-2.5-1.4c0.5-0.6,1.1-1,1.8-1.4c1.3-0.6,2.6-1,3.9-1.4c2.2-0.7,4.5-1.4,6.9-2.2
			C335.7,11.7,336,11.8,336.3,11.9z"/>
		<path class="st0" d="M360.2,17.1v-0.5l0.3-0.3V16c0.9-2.5,1.8-4.9,2.8-7.4c0.1-0.6,0.3-0.9,0.3-1c0.1-0.3,0.4-0.5,0.7-0.5
			c0.1,0,0.3,0,0.4,0c0.2,0,0.5,0.2,0.6,0.3c0.1,0.1,0.2,0.3,0.2,0.5c0,0.3-0.1,0.6-0.3,0.9c-0.2,0.4-0.4,0.7-0.5,1
			c-0.4,1-0.9,2.3-1.6,3.9s-1.3,3-1.6,3.9c-0.6,1.6-1.1,2.9-1.4,4l1.1,0.1c0.3,0,0.5,0.1,0.5,0.3c0,0.2-0.1,0.3-0.2,0.4l-0.8,0.7
			c-0.2,0.3-0.4,0.5-0.6,0.9c-0.1,0.3-0.3,0.5-0.6,0.7c-0.3,0.1-0.6,0.2-0.9,0.2c-0.2,0-0.6,0-1.2-0.1c-0.4-0.1-0.8-0.1-1.2-0.1
			h-0.3c-0.4,0-0.8,0.1-1.3,0.1s-1,0.1-1.4,0.1c-0.6,0-1.2,0-1.7-0.1c-0.5-0.1-0.9-0.2-1.3-0.4c-0.7-0.3-1.2-0.9-1.1-1.7
			c0-0.7,0.2-1.3,0.5-1.9c0.3-0.6,0.7-1.2,1.1-1.7c0.8-0.9,1.8-1.7,2.9-2.2c1.1-0.5,2.3-0.8,3.5-0.8h0.5c0.5,0,0.9,0.2,1.3,0.4
			c0.4,0.3,0.8,0.5,1.2,0.7L360.2,17.1z M351.1,20.7c-0.4,0.4-0.6,0.9-0.6,1.4c0,0.6,0.4,1,1.3,1.2c0.8,0.2,1.7,0.3,2.5,0.3h1.2
			c0.2,0,0.4-0.1,0.5-0.1c0.7-0.1,1.3-0.5,1.7-1.1c0.4-0.6,0.7-1.4,0.7-2.1c0-0.6-0.1-1.1-0.5-1.6c-0.4-0.5-1-0.7-1.6-0.7
			c-1,0.1-2,0.4-2.8,0.9C352.6,19.2,351.8,19.9,351.1,20.7z"/>
		<path class="st0" d="M375,16c0.4,0.2,0.8,0.6,1,1c0.2,0.4,0.3,0.8,0.4,1.3c0,0.6-0.3,1.3-0.8,1.7c-0.6,0.5-1.4,0.9-2.2,1.1
			c-0.8,0.2-1.6,0.4-2.4,0.4c-0.5,0-1,0-1.5-0.1c-0.5-0.1-1.1-0.2-1.6-0.3c-0.2,0-0.3-0.1-0.5-0.2c-0.1-0.1-0.2-0.1-0.3-0.1
			c-0.2,0.1-0.4,0.2-0.6,0.4c-0.5,0.3-0.8,0.8-0.8,1.4c0,0.8,0.6,1.5,1.4,1.7c0.7,0.2,1.5,0.3,2.2,0.3c0.6,0,1.2,0,1.8-0.1
			c0.7-0.1,1.3-0.1,1.7-0.2s1.2-0.1,2.3-0.2s1.9-0.1,2.5-0.1c-0.6,0.7-1.9,1.2-3.9,1.4l-2.7,0.3c-0.3,0-0.7,0.1-1.1,0.1
			s-0.8,0-1.1,0c-1.1,0-2.3-0.1-3.3-0.5c-1-0.3-1.6-1.2-1.6-2.3c0-0.3,0-0.5,0.1-0.8c0.1-0.5,0.3-1,0.7-1.4c0.1-0.2,0.6-0.7,1.2-1.5
			c0.9-1,2-1.8,3.2-2.3c1.2-0.5,2.4-0.9,3.7-1.3c0,0.1,0.3,0.1,0.7,0.2C373.9,15.7,374.4,15.8,375,16z M374.2,17.9
			c-0.2-0.1-0.3-0.2-0.5-0.3c-0.2-0.1-0.5-0.2-0.7-0.3c-0.2,0-0.4-0.1-0.6,0c-0.7,0-1.4,0.2-2,0.6l-1.1,0.6c0.5,0.9,1.4,1.4,2.4,1.4
			c1.2,0,2.3-0.7,2.9-1.7L374.2,17.9z"/>
		<path class="st0" d="M404.4,16c0,0.8-0.1,1.5-0.4,2.3c-0.2,0.8-0.6,1.5-1,2.2l-0.7,1c-0.3,0.5-0.5,1.1-0.5,1.6
			c0,0.3,0,0.6,0.1,0.9c0,0.7,0.4,1.3,1.1,1.6l2,0.3c-0.2,0.4-0.4,0.7-0.7,1c-0.2,0.2-0.5,0.3-0.8,0.3c-0.6,0-1.4-0.5-2.2-1.5
			c-0.6-0.7-1.1-1.5-1.5-2.4c-1.6,0.8-2.6,1.2-3,1.4c-1.2,0.6-2.5,0.9-3.8,1c-0.6,0-1.2-0.1-1.6-0.5c-0.5-0.5-0.7-1.2-0.6-1.9
			c0-2.4,1.4-4.6,4-6.6c2.3-1.6,4.8-2.7,7.5-3.3c0.6,0.1,1.1,0.4,1.5,0.9C404.1,14.8,404.4,15.4,404.4,16z M403.9,15.7
			c-0.2-0.2-0.4-0.4-0.7-0.5c-0.3-0.1-0.7-0.1-1.1-0.1c-0.3,0-0.5,0-0.7,0l-0.6,0.1c-1.1,0-2.2,0.4-3.1,1.1
			c-0.9,0.7-1.8,1.4-2.7,2.2c-0.6,0.6-1.2,1.2-1.8,1.9c-0.6,0.7-1,1.6-1.2,2.5c0,0.6,0.4,1.2,1,1.4c0.4,0.2,0.8,0.2,1.2,0.2
			c1,0,1.9-0.3,2.8-0.8c0.9-0.4,1.7-1,2.4-1.6c0.6-0.9,1.2-1.8,1.7-2.8c0.4-1,1.4-1.6,2.4-1.6c0.1-0.2,0.2-0.5,0.3-0.7
			c0.1-0.3,0.1-0.5,0.1-0.8C404,16,403.9,15.8,403.9,15.7L403.9,15.7z"/>
		<path class="st0" d="M412.9,24.3c-0.1-0.2-0.3-0.3-0.5-0.4c-0.2,0-0.4,0.1-0.6,0.1l-0.5,0.2h-0.4c-0.4,0-0.9-0.1-1.3-0.2
			c-0.3-0.1-0.7-0.1-1-0.2c-0.7,0-1.4-0.1-2.1-0.3c-0.7-0.2-1.1-0.9-1.2-1.6c0.1-1,0.5-1.9,1.2-2.6c0.6-0.7,1.3-1.3,2.1-1.8
			c1.4-0.9,2.8-1.7,4.3-2.4c1.5-0.7,3-1.3,4.5-1.7c0.6-0.2,1.2-0.2,1.8-0.3c1.8,0,2.7,0.9,2.7,2.6c0,0.7-0.1,1.4-0.4,2.1
			c-0.7,1.9-1.8,3.5-3.3,4.8l-4.6,4c-0.3,0.3-0.6,0.6-0.9,0.9c-0.3,0.3-0.4,0.6-0.5,0.9c0,0.2-0.1,0.4-0.1,0.6
			c0,0.4,0.1,0.9,0.2,1.3c0.2,0.7,0.3,1.4,0.4,2.1c0,1-0.2,2.1-0.8,3c-0.5,0.9-1.3,1.6-2.3,2c-0.5,0.2-1.1,0.4-1.7,0.5
			c-0.6,0.1-1.2,0.2-1.8,0.2c-0.6,0-1.1-0.1-1.6-0.3c-0.5-0.3-0.7-0.8-0.7-1.3c0-0.2,0-0.4,0.1-0.7c0.3-1.1,0.8-2,1.6-2.8
			c0.8-0.8,1.6-1.6,2.4-2.4c0.8-0.8,1.3-1.7,1.5-2.8c-0.3,0-0.6-0.1-0.9-0.1c-0.3,0-0.5,0-0.8,0.1c0-0.5,0.1-1,0.3-1.5
			c0.2-0.3,0.5-0.5,0.8-0.5c0.5,0,1,0.1,1.4,0.3l0.3,0.3c0.1,0,0.3,0.1,0.5,0.1c0.5,0,1-0.3,1.3-0.6c0.4-0.4,0.7-0.8,1-1.3
			L412.9,24.3z M409.9,30.5l-0.8,0.5c-1,1-1.6,1.8-2,2.3c-0.7,0.8-1.2,1.7-1.6,2.7c0.6,0.3,1.3,0.5,2,0.5c1,0,2-0.6,2.4-1.5
			c0.5-1,0.8-2.2,0.8-3.3c0-0.6-0.1-1.2-0.2-1.8l-0.3,0.4L409.9,30.5z M410.8,17.9c-0.9,0.4-1.7,0.9-2.3,1.6
			c-0.6,0.5-1.1,1.3-1.2,2.1c0,0.4,0.2,0.7,0.5,0.9c0.5,0.2,1.1,0.4,1.6,0.3c1.4,0,2.8-0.1,4.2-0.4c1.4-0.3,2.6-0.8,3.8-1.6
			c0.7-0.5,1.2-1.2,1.6-1.9c0.5-0.7,0.9-1.5,0.9-2.4c0-0.4-0.2-0.8-0.5-1.1c-0.5-0.3-1-0.4-1.6-0.4c-1.3,0.1-2.5,0.4-3.6,1
			L410.8,17.9z"/>
		<path class="st0" d="M425.3,24.2h0.5c0.2,0.1,0.4,0.1,0.6,0.1c0.7,0,1.4-0.2,2-0.5l1.8-0.7c1.7-0.6,3.3-1.4,4.8-2.5
			c1.4-1.1,2.6-2.4,3.5-4c0.6-1.1,1-1.8,1.2-2.1c0.7-0.9,1.3-1.3,1.8-1.2c0.2,0,0.5,0.1,0.6,0.3c0.1,0.2,0.2,0.3,0.2,0.5
			c0,0.4-0.2,0.8-0.4,1.2c-0.2,0.4-0.4,0.7-0.7,1c-0.3,0.5-1,1.2-2,2.3c-1.2,1.2-2.1,2.7-2.7,4.3c-0.1,0.3-0.1,0.5-0.1,0.8
			c0,0.3,0.2,0.7,0.5,0.8c0.2,0,0.4,0.1,0.6,0h0.6c0.3,0,0.6,0,0.9,0.1c0.2,0.1,0.3,0.3,0.4,0.4c-0.2,0-0.6,0.1-1.3,0.3
			c-0.5,0.2-1,0.2-1.6,0.3c-0.2,0-0.5,0-0.7-0.1c-0.4-0.1-0.7-0.3-1-0.5c-0.3-0.5-0.4-1.1-0.4-1.7V22c-1.3,0.8-2.3,1.4-2.8,1.7
			c-1,0.6-2,1-3.1,1.4c-1,0.4-2.1,0.6-3.3,0.6c-0.5,0-1.1,0-1.6-0.2c-0.4-0.1-0.8-0.2-1.1-0.5c-0.2-0.2-0.3-0.5-0.3-0.8
			c0.1-0.8,0.5-1.5,1-2c0.5-0.6,1-1.2,1.5-1.9s1.1-1.3,1.8-2.1l3.2-3.4c0.3-0.3,0.6-0.6,1-0.9c0.3-0.2,0.5-0.3,0.8-0.3
			c0.3,0,0.5,0.1,0.6,0.4c0,0.1,0,0.1,0,0.2c-0.1,0.6-0.3,1.2-0.8,1.6c-0.7,0.9-1.5,1.8-2.4,2.6c-1.2,1.2-2,2-2.4,2.5
			c-0.7,0.9-1.3,1.9-1.8,3L425.3,24.2z"/>
		<path class="st0" d="M447,16.5c0.2,0.2,0.3,0.5,0.3,0.8c0,0.4-0.1,0.8-0.3,1.2l-0.6,1.3c-0.1,0.5-0.3,0.9-0.5,1.4
			c-0.3,0.7-0.5,1.2-0.6,1.4c-0.2,0.6-0.4,1.1-0.8,1.5c-0.5,0.3-1.1,0.4-1.7,0.4c0-0.3,0-0.5,0-0.5c-0.1-0.4-0.1-0.6-0.1-0.6
			c0-0.2,0.1-0.5,0.1-0.7c0.1-0.4,0.3-0.7,0.5-1c0.2-0.3,0.4-0.6,0.6-1c0.3-0.8,0.6-1.7,0.9-2.5c0.3-0.8,0.8-1.5,1.5-2.1L447,16.5z"
			/>
		<path class="st0" d="M262.8,0.7c0.1,0.3,0.2,0.6,0,0.9c-0.2,0.4-0.4,0.7-0.7,1l-1,1c-0.3,0.4-0.6,0.8-0.9,1.1
			c-0.5,0.6-0.9,1-1,1.1c-0.3,0.5-0.7,0.9-1.2,1.2c-0.6,0.1-1.2,0.1-1.8-0.2l0.1-0.5c0.1-0.4,0.1-0.6,0.1-0.6
			c0.1-0.2,0.2-0.4,0.3-0.6c0.2-0.3,0.5-0.6,0.9-0.8c0.3-0.2,0.6-0.5,0.9-0.8c0.6-0.7,1.1-1.4,1.7-2.1c0.6-0.7,1.4-1.2,2.2-1.5
			L262.8,0.7z"/>
		<path class="st0" d="M582.5,3.7c0.1,0.3,0.1,0.6,0,0.9c-0.2,0.4-0.4,0.7-0.7,1l-1,1c-0.3,0.4-0.6,0.8-0.9,1.1
			c-0.5,0.6-0.9,1-1,1.1c-0.3,0.5-0.7,0.9-1.2,1.2c-0.6,0.1-1.2,0.1-1.8-0.2l0.1-0.5c0.1-0.4,0.1-0.6,0.1-0.6
			c0.1-0.2,0.2-0.4,0.3-0.6c0.2-0.3,0.5-0.6,0.8-0.8c0.3-0.2,0.6-0.5,0.9-0.8c0.6-0.7,1.1-1.4,1.7-2.1c0.6-0.7,1.4-1.2,2.2-1.5
			L582.5,3.7z"/>
		<path class="st0" d="M477.2,13.5c0.2,0.2,0.3,0.5,0.3,0.7c-0.1,0.6-0.3,1.1-0.7,1.6l-1,1.3c-0.4,0.6-0.8,1.2-1.3,1.8
			c-1.5,1.9-2.2,2.8-2.3,2.9l-1.3,1.6c-0.2,0.3-0.3,0.6-0.3,0.9c0,0.3,0.1,0.7,0.3,1c-1.4,0.5-2.7,1.4-3.6,2.7
			c-0.4,0.6-1.3,1.9-2.5,3.9l-1.6,2.8c-0.3,0.5-0.5,0.8-0.9,0.8c-0.2,0-0.5-0.1-0.7-0.3l-0.9-0.5c0.3-0.6,0.7-1.2,1.1-1.7
			c1.5-1.8,2.3-2.8,2.4-3c0.8-0.9,1.4-1.6,1.9-2.1c0.3-0.3,0.6-0.8,0.6-1.2c0-0.6-0.1-0.9-0.6-1l-1.3-0.1c-0.9-0.3-1.6-1.1-1.9-2
			c-0.3-1.1-0.5-2.3-0.5-3.5c0-0.9,0-1.8,0.1-2.6c0-0.5,0.1-1.2,0.3-2.1c0.6-0.1,1.1,0.2,1.4,0.7c0.3,0.6,0.4,1.2,0.3,1.8
			c0,0.2,0,0.8-0.1,1.5s-0.1,1.4-0.1,1.8c-0.1,0.9,0.1,1.7,0.5,2.5c0.6,0.8,1.6,1.2,2.5,1c0.8,0,1.6-0.7,2.6-2.1
			c0.4-0.6,0.8-1.3,1.2-2c1.2-2.2,2-3.6,2.3-4.1c0.8-1.3,1.8-2.5,2.9-3.6L477.2,13.5z"/>
		<path class="st0" d="M500.2,17.1v-0.5l0.3-0.3V16c0.9-2.5,1.8-4.9,2.8-7.4c0.1-0.3,0.2-0.7,0.3-1c0.1-0.3,0.4-0.5,0.7-0.5
			c0.1,0,0.3,0,0.4,0c0.2,0,0.5,0.2,0.6,0.3c0.1,0.1,0.2,0.3,0.2,0.5c0,0.3-0.1,0.6-0.3,0.9l-0.5,1c-0.4,1-0.9,2.3-1.6,3.9
			s-1.3,3-1.6,3.9c-0.6,1.6-1.1,2.9-1.4,4l1.1,0.1c0.3,0,0.5,0.1,0.5,0.3c0,0.2-0.1,0.3-0.2,0.4l-0.8,0.7c-0.2,0.3-0.4,0.5-0.6,0.9
			c-0.1,0.3-0.3,0.5-0.6,0.7c-0.3,0.1-0.6,0.2-0.9,0.2c-0.2,0-0.6,0-1.2-0.1c-0.4-0.1-0.8-0.1-1.2-0.1h-0.3c-0.4,0-0.8,0.1-1.3,0.1
			s-1,0.1-1.4,0.1c-0.6,0-1.2,0-1.7-0.1c-0.5-0.1-0.9-0.2-1.3-0.4c-0.3-0.1-0.6-0.4-0.9-0.7c-0.2-0.3-0.3-0.6-0.3-1
			c0-0.7,0.2-1.3,0.5-1.9c0.3-0.6,0.7-1.2,1.1-1.7c0.8-0.9,1.8-1.7,2.9-2.2c1.1-0.5,2.3-0.8,3.5-0.8h0.5c0.5,0,0.9,0.2,1.3,0.4
			c0.4,0.3,0.8,0.5,1.2,0.7L500.2,17.1z M491.1,20.7c-0.4,0.4-0.6,0.9-0.6,1.4c0,0.6,0.4,1,1.3,1.2c0.8,0.2,1.7,0.3,2.5,0.3h1.2
			c0.2,0,0.4-0.1,0.5-0.1c0.7-0.1,1.3-0.5,1.7-1.1c0.4-0.6,0.7-1.4,0.7-2.1c0-0.6-0.1-1.1-0.5-1.6c-0.4-0.5-1-0.7-1.6-0.7
			c-1,0.1-2,0.4-2.8,0.9C492.6,19.2,491.8,19.9,491.1,20.7z"/>
		<path class="st0" d="M515,16c0.4,0.2,0.8,0.6,1,1c0.2,0.4,0.3,0.8,0.3,1.3c0,0.6-0.3,1.3-0.8,1.7c-0.7,0.5-1.4,0.9-2.2,1.1
			c-0.8,0.3-1.6,0.4-2.4,0.4c-0.5,0-1,0-1.5-0.1c-0.5-0.1-1.1-0.2-1.6-0.3c-0.2,0-0.4-0.1-0.5-0.2c-0.1-0.1-0.2-0.1-0.3-0.1
			c-0.2,0.1-0.4,0.2-0.6,0.4c-0.5,0.3-0.8,0.8-0.8,1.4c0,0.8,0.6,1.5,1.4,1.7c0.7,0.2,1.5,0.3,2.2,0.3c0.6,0,1.2,0,1.8-0.1
			c0.7-0.1,1.3-0.1,1.7-0.2s1.2-0.1,2.3-0.2s1.9-0.1,2.5-0.1c-0.6,0.7-2,1.2-3.9,1.4l-2.7,0.3c-0.3,0-0.7,0.1-1.1,0.1s-0.8,0-1.1,0
			c-1.1,0.1-2.3-0.1-3.3-0.5c-1-0.3-1.7-1.2-1.6-2.3c0-0.3,0-0.5,0.1-0.8c0.1-0.5,0.4-1,0.7-1.4c0.4-0.5,0.8-1,1.2-1.5
			c0.9-1,2-1.8,3.2-2.3c1.2-0.5,2.4-0.9,3.7-1.3c0,0.1,0.3,0.1,0.7,0.2C513.9,15.7,514.4,15.8,515,16z M514.2,17.9
			c-0.2-0.1-0.3-0.2-0.5-0.3c-0.2-0.1-0.5-0.2-0.7-0.3c-0.2,0-0.4-0.1-0.6,0c-0.7,0-1.4,0.2-2,0.6l-1.1,0.6c0.5,0.9,1.4,1.4,2.4,1.4
			c1.2,0,2.3-0.7,2.9-1.7L514.2,17.9z"/>
		<path class="st0" d="M544.4,16c0,0.8-0.1,1.5-0.4,2.3c-0.2,0.8-0.6,1.5-1,2.2l-0.7,1c-0.3,0.5-0.5,1.1-0.5,1.6
			c0,0.3,0,0.6,0.1,0.9c0,0.7,0.4,1.3,1,1.5l2,0.3c-0.2,0.4-0.4,0.7-0.7,1c-0.2,0.2-0.5,0.3-0.8,0.3c-0.6,0-1.4-0.5-2.2-1.5
			c-0.6-0.7-1.1-1.5-1.5-2.4c-1.6,0.8-2.6,1.2-3,1.4c-1.2,0.6-2.5,0.9-3.8,1c-0.6,0-1.2-0.1-1.7-0.5c-0.5-0.5-0.7-1.2-0.7-1.9
			c0-2.4,1.3-4.6,4-6.6c2.3-1.6,4.8-2.7,7.5-3.3c0.6,0.1,1.1,0.4,1.5,0.9C544.1,14.8,544.4,15.4,544.4,16z M543.9,15.7
			c-0.2-0.2-0.4-0.4-0.7-0.5c-0.3-0.1-0.7-0.1-1.1-0.1c-0.3,0-0.5,0-0.7,0l-0.6,0.1c-1.1,0-2.2,0.4-3.1,1.1
			c-0.9,0.7-1.8,1.4-2.7,2.2c-0.6,0.6-1.2,1.2-1.8,1.9c-0.6,0.7-1,1.6-1.2,2.5c0,0.6,0.4,1.2,1,1.4c0.4,0.2,0.8,0.2,1.2,0.2
			c1,0,1.9-0.3,2.8-0.8c0.9-0.4,1.7-1,2.4-1.6c0.6-0.9,1.2-1.8,1.7-2.8c0.4-1,1.4-1.6,2.4-1.6c0.1-0.2,0.2-0.5,0.3-0.7
			c0.1-0.3,0.1-0.5,0.1-0.8C544,16,543.9,15.8,543.9,15.7L543.9,15.7z"/>
		<path class="st0" d="M556.5,6.6c0,0.1,0.1,0.3,0.1,0.4c0,0.3-0.1,0.5-0.2,0.8c-0.1,0.3-0.3,0.5-0.4,0.8c-0.4,0.9-0.9,1.7-1.5,2.5
			c-0.6,0.8-1.1,1.6-1.5,2.4c-0.5,1-1,2-1.5,3s-1.1,2-1.6,3c-0.6,1.2-1.1,2.3-1.5,3.1c-0.2,0.6-0.4,1.3-0.7,1.9s-0.7,1.1-1.3,1.1
			c-0.3,0-0.7,0-1-0.2c-0.2-0.1-0.3-0.3-0.3-0.5c0-0.4,0.2-0.9,0.5-1.3c0.3-0.4,0.5-0.9,0.8-1.3c0.5-0.9,1.1-2,1.8-3.1l2-3.1
			c0.6-1,1.2-2.1,1.7-3.1c0.2-0.5,0.5-1,0.8-1.6c0.6-1.2,1-2.2,1.2-2.8s0.3-1.2,0.5-1.8c0.2-0.5,0.6-1,1.1-1.3
			c0.1-0.1,0.3,0,0.6,0.4C556.2,6.2,556.4,6.4,556.5,6.6z"/>
		<path class="st0" d="M566.4,6.6c0,0.1,0.1,0.3,0.1,0.4c0,0.3-0.1,0.5-0.2,0.8c-0.1,0.3-0.3,0.5-0.4,0.8c-0.4,0.9-0.9,1.7-1.5,2.5
			c-0.6,0.8-1.1,1.6-1.5,2.4c-0.5,1-1,2-1.5,3s-1.1,2-1.6,3c-0.6,1.2-1.1,2.3-1.5,3.1l-0.7,1.9c-0.3,0.7-0.7,1.1-1.3,1.1
			c-0.3,0-0.7,0-1-0.2c-0.2-0.1-0.3-0.3-0.3-0.5c0.1-0.4,0.2-0.9,0.5-1.3c0.3-0.4,0.5-0.9,0.8-1.3c0.5-0.9,1.1-2,1.8-3.1l2-3.1
			c0.6-1,1.2-2.1,1.7-3.1l0.8-1.6c0.6-1.2,1-2.2,1.2-2.8s0.3-1.2,0.5-1.8c0.2-0.5,0.6-1,1.1-1.3c0.1-0.1,0.3,0,0.6,0.4
			C566.1,6.2,566.2,6.4,566.4,6.6z"/>
		<path class="st0" d="M578.7,16c0,0.8-0.1,1.5-0.4,2.3c-0.2,0.8-0.6,1.5-1,2.2l-0.7,1c-0.3,0.5-0.5,1.1-0.5,1.6
			c0,0.3,0,0.6,0.1,0.9c0,0.7,0.4,1.3,1,1.5l2,0.3c-0.1,0.4-0.4,0.7-0.7,1c-0.2,0.2-0.5,0.3-0.8,0.3c-0.6,0-1.3-0.5-2.2-1.5
			c-0.6-0.7-1.1-1.5-1.6-2.3c-1.6,0.8-2.6,1.2-3,1.4c-1.2,0.6-2.5,0.9-3.8,1c-0.6,0-1.2-0.1-1.6-0.5c-0.5-0.5-0.7-1.2-0.6-1.9
			c0-2.4,1.4-4.6,4-6.6c2.3-1.6,4.8-2.7,7.5-3.3c0.6,0.1,1.1,0.4,1.5,0.9C578.4,14.8,578.7,15.4,578.7,16z M578.2,15.7
			c-0.2-0.2-0.4-0.4-0.7-0.5c-0.3-0.1-0.7-0.1-1.1-0.1c-0.3,0-0.5,0-0.7,0l-0.6,0.1c-1.1,0-2.2,0.4-3.1,1.1
			c-0.9,0.7-1.8,1.4-2.7,2.2c-0.6,0.6-1.2,1.2-1.8,1.9c-0.6,0.7-1,1.6-1.2,2.5c0,0.6,0.4,1.2,1,1.4c0.4,0.2,0.8,0.2,1.2,0.2
			c1,0,1.9-0.3,2.8-0.8c0.9-0.4,1.7-1,2.4-1.6c0.7-0.9,1.2-1.8,1.7-2.8c0.4-1,1.4-1.6,2.4-1.6c0.1-0.2,0.2-0.5,0.3-0.7
			c0.1-0.3,0.1-0.5,0.1-0.8C578.3,16,578.2,15.8,578.2,15.7L578.2,15.7z"/>
		<path class="st0" d="M586.4,24.8c-0.1,0.2-0.4,0.4-0.6,0.4c-0.3,0-0.5,0.1-0.7,0.2c-0.2,0.1-0.4,0.2-0.5,0.4
			c-0.1,0.1-0.3,0.2-0.5,0.3c-0.1,0-0.2-0.1-0.3-0.1c-0.1-0.2-0.3-0.4-0.3-0.6c-0.1-0.3-0.2-0.5-0.2-0.8c0-0.3,0.1-0.6,0.4-0.8
			c0.4-0.2,0.8-0.3,1.2-0.2c0.3,0,0.7,0,1,0.1c0.3,0.1,0.7,0.1,1,0.2c0,0.1,0,0.1,0,0.2C586.7,24.2,586.6,24.5,586.4,24.8z"/>
		<path class="st0" d="M453.8,6c0.1,0.3,0.2,0.6,0,0.9c-0.2,0.4-0.4,0.7-0.7,1l-1,1.1c-0.3,0.4-0.6,0.8-0.9,1.1
			c-0.5,0.6-0.9,1-1,1.1c-0.3,0.5-0.7,0.9-1.2,1.2c-0.6,0.1-1.2,0.1-1.8-0.2l0.1-0.5c0.1-0.4,0.1-0.6,0.1-0.6
			c0.1-0.2,0.2-0.4,0.3-0.6c0.2-0.3,0.5-0.6,0.9-0.8c0.3-0.2,0.6-0.5,0.9-0.8c0.6-0.7,1.1-1.4,1.7-2.1c0.6-0.7,1.4-1.2,2.2-1.5
			L453.8,6z"/>
	</g>
</g>
</svg>
